2024-03-14 12:31:35.722 +02:00 [INF] No action descriptors found. This may indicate an incorrectly configured application or missing application parts. To learn more, visit https://aka.ms/aspnet/mvc/app-parts
2024-03-14 12:31:36.189 +02:00 [INF] Now listening on: https://localhost:5001
2024-03-14 12:31:36.191 +02:00 [INF] Now listening on: http://localhost:5000
2024-03-14 12:31:36.192 +02:00 [INF] Application started. Press Ctrl+C to shut down.
2024-03-14 12:31:36.193 +02:00 [INF] Hosting environment: Production
2024-03-14 12:31:36.194 +02:00 [INF] Content root path: C:\Users\Mano kompiuteris\Desktop\C#\231228csh200vak\Tasks\DemoGame\GameApi
2024-03-14 12:31:53.480 +02:00 [INF] Request starting HTTP/2 GET https://localhost:5001/swagger - null null
2024-03-14 12:31:53.663 +02:00 [INF] Request finished HTTP/2 GET https://localhost:5001/swagger - 404 0 null 187.3654ms
2024-03-14 12:31:53.669 +02:00 [INF] Request reached the end of the middleware pipeline without being handled by application code. Request path: GET https://localhost:5001/swagger, Response status code: 404
2024-03-14 13:47:09.783 +02:00 [INF] Now listening on: https://localhost:7140
2024-03-14 13:47:09.845 +02:00 [INF] Now listening on: http://localhost:5292
2024-03-14 13:47:09.847 +02:00 [INF] Application started. Press Ctrl+C to shut down.
2024-03-14 13:47:09.855 +02:00 [INF] Hosting environment: Development
2024-03-14 13:47:09.856 +02:00 [INF] Content root path: C:\Users\Mano kompiuteris\Desktop\C#\231228csh200vak\Tasks\DemoGame\GameApi
2024-03-14 13:47:10.476 +02:00 [INF] Request starting HTTP/2 GET https://localhost:7140/swagger - null null
2024-03-14 13:47:10.658 +02:00 [INF] Request finished HTTP/2 GET https://localhost:7140/swagger - 301 0 null 186.778ms
2024-03-14 13:47:10.663 +02:00 [INF] Request starting HTTP/2 GET https://localhost:7140/swagger/index.html - null null
2024-03-14 13:47:10.744 +02:00 [INF] Request finished HTTP/2 GET https://localhost:7140/swagger/index.html - 200 null text/html;charset=utf-8 81.1027ms
2024-03-14 13:47:10.755 +02:00 [INF] Request starting HTTP/2 GET https://localhost:7140/swagger/swagger-ui.css - null null
2024-03-14 13:47:10.756 +02:00 [INF] Request starting HTTP/2 GET https://localhost:7140/swagger/swagger-ui-bundle.js - null null
2024-03-14 13:47:10.756 +02:00 [INF] Request starting HTTP/2 GET https://localhost:7140/swagger/swagger-ui-standalone-preset.js - null null
2024-03-14 13:47:10.767 +02:00 [INF] Request starting HTTP/2 GET https://localhost:7140/_framework/aspnetcore-browser-refresh.js - null null
2024-03-14 13:47:10.798 +02:00 [INF] Request finished HTTP/2 GET https://localhost:7140/_framework/aspnetcore-browser-refresh.js - 200 13750 application/javascript; charset=utf-8 30.8227ms
2024-03-14 13:47:10.803 +02:00 [INF] Sending file. Request path: '/swagger-ui.css'. Physical path: 'N/A'
2024-03-14 13:47:10.803 +02:00 [INF] Sending file. Request path: '/swagger-ui-standalone-preset.js'. Physical path: 'N/A'
2024-03-14 13:47:10.812 +02:00 [INF] Request finished HTTP/2 GET https://localhost:7140/swagger/swagger-ui.css - 200 144929 text/css 56.7022ms
2024-03-14 13:47:10.812 +02:00 [INF] Request finished HTTP/2 GET https://localhost:7140/swagger/swagger-ui-standalone-preset.js - 200 312163 text/javascript 55.4615ms
2024-03-14 13:47:10.838 +02:00 [INF] Request starting HTTP/2 GET https://localhost:7140/_vs/browserLink - null null
2024-03-14 13:47:10.841 +02:00 [INF] Sending file. Request path: '/swagger-ui-bundle.js'. Physical path: 'N/A'
2024-03-14 13:47:10.843 +02:00 [INF] Request finished HTTP/2 GET https://localhost:7140/swagger/swagger-ui-bundle.js - 200 1061536 text/javascript 86.7731ms
2024-03-14 13:47:10.890 +02:00 [INF] Request finished HTTP/2 GET https://localhost:7140/_vs/browserLink - 200 null text/javascript; charset=UTF-8 52.2431ms
2024-03-14 13:47:11.091 +02:00 [INF] Request starting HTTP/2 GET https://localhost:7140/swagger/v1/swagger.json - null null
2024-03-14 13:47:11.104 +02:00 [INF] Request starting HTTP/2 GET https://localhost:7140/swagger/favicon-32x32.png - null null
2024-03-14 13:47:11.113 +02:00 [INF] Sending file. Request path: '/favicon-32x32.png'. Physical path: 'N/A'
2024-03-14 13:47:11.118 +02:00 [INF] Request finished HTTP/2 GET https://localhost:7140/swagger/favicon-32x32.png - 200 628 image/png 13.932ms
2024-03-14 13:47:11.208 +02:00 [INF] Request finished HTTP/2 GET https://localhost:7140/swagger/v1/swagger.json - 200 null application/json;charset=utf-8 117.5397ms
2024-03-14 13:47:26.053 +02:00 [INF] Request starting HTTP/2 POST https://localhost:7140/api/Items - application/json 79
2024-03-14 13:47:26.061 +02:00 [INF] Executing endpoint 'GameApi.Controllers.ItemsController.CreateItemAsync (GameApi)'
2024-03-14 13:47:26.086 +02:00 [INF] Route matched with {action = "CreateItem", controller = "Items"}. Executing controller action with signature System.Threading.Tasks.Task`1[Microsoft.AspNetCore.Mvc.IActionResult] CreateItemAsync(DataAccess.Entities.Item) on controller GameApi.Controllers.ItemsController (GameApi).
2024-03-14 13:47:26.204 +02:00 [INF] Executed action GameApi.Controllers.ItemsController.CreateItemAsync (GameApi) in 113.0862ms
2024-03-14 13:47:26.207 +02:00 [INF] Executed endpoint 'GameApi.Controllers.ItemsController.CreateItemAsync (GameApi)'
2024-03-14 13:47:26.210 +02:00 [ERR] An unhandled exception has occurred while executing the request.
System.NotImplementedException: The method or operation is not implemented.
   at GameApi.Controllers.ItemsController.CreateItemAsync(Item item) in C:\Users\Mano kompiuteris\Desktop\C#\231228csh200vak\Tasks\DemoGame\GameApi\Controllers\ItemsController.cs:line 14
   at Microsoft.AspNetCore.Mvc.Infrastructure.ActionMethodExecutor.TaskOfIActionResultExecutor.Execute(ActionContext actionContext, IActionResultTypeMapper mapper, ObjectMethodExecutor executor, Object controller, Object[] arguments)
   at Microsoft.AspNetCore.Mvc.Infrastructure.ControllerActionInvoker.<InvokeActionMethodAsync>g__Awaited|12_0(ControllerActionInvoker invoker, ValueTask`1 actionResultValueTask)
   at Microsoft.AspNetCore.Mvc.Infrastructure.ControllerActionInvoker.<InvokeNextActionFilterAsync>g__Awaited|10_0(ControllerActionInvoker invoker, Task lastTask, State next, Scope scope, Object state, Boolean isCompleted)
   at Microsoft.AspNetCore.Mvc.Infrastructure.ControllerActionInvoker.Rethrow(ActionExecutedContextSealed context)
   at Microsoft.AspNetCore.Mvc.Infrastructure.ControllerActionInvoker.Next(State& next, Scope& scope, Object& state, Boolean& isCompleted)
   at Microsoft.AspNetCore.Mvc.Infrastructure.ControllerActionInvoker.InvokeInnerFilterAsync()
--- End of stack trace from previous location ---
   at Microsoft.AspNetCore.Mvc.Infrastructure.ResourceInvoker.<InvokeFilterPipelineAsync>g__Awaited|20_0(ResourceInvoker invoker, Task lastTask, State next, Scope scope, Object state, Boolean isCompleted)
   at Microsoft.AspNetCore.Mvc.Infrastructure.ResourceInvoker.<InvokeAsync>g__Logged|17_1(ResourceInvoker invoker)
   at Microsoft.AspNetCore.Mvc.Infrastructure.ResourceInvoker.<InvokeAsync>g__Logged|17_1(ResourceInvoker invoker)
   at Microsoft.AspNetCore.Routing.EndpointMiddleware.<Invoke>g__AwaitRequestTask|7_0(Endpoint endpoint, Task requestTask, ILogger logger)
   at Microsoft.AspNetCore.Authorization.AuthorizationMiddleware.Invoke(HttpContext context)
   at Swashbuckle.AspNetCore.SwaggerUI.SwaggerUIMiddleware.Invoke(HttpContext httpContext)
   at Swashbuckle.AspNetCore.Swagger.SwaggerMiddleware.Invoke(HttpContext httpContext, ISwaggerProvider swaggerProvider)
   at Microsoft.AspNetCore.Authentication.AuthenticationMiddleware.Invoke(HttpContext context)
   at Microsoft.AspNetCore.Diagnostics.DeveloperExceptionPageMiddlewareImpl.Invoke(HttpContext context)
2024-03-14 13:47:26.338 +02:00 [INF] Request finished HTTP/2 POST https://localhost:7140/api/Items - 500 null text/plain; charset=utf-8 285.2026ms
